<?xml version="1.0" encoding="UTF-8"?>
<!DOCTYPE svg PUBLIC '-//W3C//DTD SVG 1.0//EN'
          'http://www.w3.org/TR/2001/REC-SVG-20010904/DTD/svg10.dtd'>
<svg fill-opacity="1" xmlns:xlink="http://www.w3.org/1999/xlink" color-rendering="auto" color-interpolation="auto" text-rendering="auto" stroke="black" stroke-linecap="square" width="950" stroke-miterlimit="10" shape-rendering="auto" stroke-opacity="1" fill="black" stroke-dasharray="none" font-weight="normal" stroke-width="1" viewBox="30 -20 950 680" height="680" xmlns="http://www.w3.org/2000/svg" font-family="'Dialog'" font-style="normal" stroke-linejoin="miter" font-size="12px" stroke-dashoffset="0" image-rendering="auto"
><!--Generated by the Batik Graphics2D SVG Generator--><defs id="genericDefs"
  /><g
  ><defs id="defs1"
    ><clipPath clipPathUnits="userSpaceOnUse" id="clipPath1"
      ><path d="M0 0 L2147483647 0 L2147483647 2147483647 L0 2147483647 L0 0 Z"
      /></clipPath
      ><clipPath clipPathUnits="userSpaceOnUse" id="clipPath2"
      ><path d="M0 0 L0 20 L20 20 L20 0 Z"
      /></clipPath
      ><clipPath clipPathUnits="userSpaceOnUse" id="clipPath3"
      ><path d="M-0.5 -0.5 L-0.5 19.5 L19.5 19.5 L19.5 -0.5 Z"
      /></clipPath
      ><clipPath clipPathUnits="userSpaceOnUse" id="clipPath4"
      ><path d="M0 0 L0 30 L100 30 L100 0 Z"
      /></clipPath
      ><clipPath clipPathUnits="userSpaceOnUse" id="clipPath5"
      ><path d="M-0.5 -0.5 L-0.5 29.5 L99.5 29.5 L99.5 -0.5 Z"
      /></clipPath
      ><clipPath clipPathUnits="userSpaceOnUse" id="clipPath6"
      ><path d="M0 0 L0 140 L20 140 L20 0 Z"
      /></clipPath
      ><clipPath clipPathUnits="userSpaceOnUse" id="clipPath7"
      ><path d="M-0.5 -0.5 L-0.5 139.5 L19.5 139.5 L19.5 -0.5 Z"
      /></clipPath
      ><clipPath clipPathUnits="userSpaceOnUse" id="clipPath8"
      ><path d="M0 0 L0 40 L20 40 L20 0 Z"
      /></clipPath
      ><clipPath clipPathUnits="userSpaceOnUse" id="clipPath9"
      ><path d="M-0.5 -0.5 L-0.5 39.5 L19.5 39.5 L19.5 -0.5 Z"
      /></clipPath
      ><clipPath clipPathUnits="userSpaceOnUse" id="clipPath10"
      ><path d="M0 0 L0 80 L20 80 L20 0 Z"
      /></clipPath
      ><clipPath clipPathUnits="userSpaceOnUse" id="clipPath11"
      ><path d="M-0.5 -0.5 L-0.5 79.5 L19.5 79.5 L19.5 -0.5 Z"
      /></clipPath
      ><clipPath clipPathUnits="userSpaceOnUse" id="clipPath12"
      ><path d="M0 0 L0 120 L20 120 L20 0 Z"
      /></clipPath
      ><clipPath clipPathUnits="userSpaceOnUse" id="clipPath13"
      ><path d="M-0.5 -0.5 L-0.5 119.5 L19.5 119.5 L19.5 -0.5 Z"
      /></clipPath
      ><clipPath clipPathUnits="userSpaceOnUse" id="clipPath14"
      ><path d="M0 0 L0 170 L20 170 L20 0 Z"
      /></clipPath
      ><clipPath clipPathUnits="userSpaceOnUse" id="clipPath15"
      ><path d="M-0.5 -0.5 L-0.5 169.5 L19.5 169.5 L19.5 -0.5 Z"
      /></clipPath
      ><clipPath clipPathUnits="userSpaceOnUse" id="clipPath16"
      ><path d="M0 0 L0 30 L130 30 L130 0 Z"
      /></clipPath
      ><clipPath clipPathUnits="userSpaceOnUse" id="clipPath17"
      ><path d="M-0.5 -0.5 L-0.5 29.5 L129.5 29.5 L129.5 -0.5 Z"
      /></clipPath
      ><clipPath clipPathUnits="userSpaceOnUse" id="clipPath18"
      ><path d="M0 0 L0 40 L200 40 L200 0 Z"
      /></clipPath
      ><clipPath clipPathUnits="userSpaceOnUse" id="clipPath19"
      ><path d="M0 0 L0 40 L210 40 L210 0 Z"
      /></clipPath
      ><clipPath clipPathUnits="userSpaceOnUse" id="clipPath20"
      ><path d="M0 0 L0 540 L30 540 L30 0 Z"
      /></clipPath
      ><clipPath clipPathUnits="userSpaceOnUse" id="clipPath21"
      ><path d="M0 0 L0 40 L410 40 L410 0 Z"
      /></clipPath
      ><clipPath clipPathUnits="userSpaceOnUse" id="clipPath22"
      ><path d="M0 0 L0 40 L420 40 L420 0 Z"
      /></clipPath
      ><clipPath clipPathUnits="userSpaceOnUse" id="clipPath23"
      ><path d="M0 0 L0 550 L30 550 L30 0 Z"
      /></clipPath
      ><clipPath clipPathUnits="userSpaceOnUse" id="clipPath24"
      ><path d="M0 0 L0 40 L230 40 L230 0 Z"
      /></clipPath
      ><clipPath clipPathUnits="userSpaceOnUse" id="clipPath25"
      ><path d="M0 0 L0 70 L140 70 L140 0 Z"
      /></clipPath
      ><clipPath clipPathUnits="userSpaceOnUse" id="clipPath26"
      ><path d="M0 0 L0 560 L30 560 L30 0 Z"
      /></clipPath
      ><clipPath clipPathUnits="userSpaceOnUse" id="clipPath27"
      ><path d="M0 0 L0 590 L30 590 L30 0 Z"
      /></clipPath
    ></defs
    ><g fill="rgb(255,255,255)" fill-opacity="0" transform="translate(900,520)" stroke-opacity="0" stroke="rgb(255,255,255)"
    ><rect x="0.5" width="18.5" height="18.5" y="0.5" clip-path="url(#clipPath2)" stroke="none"
    /></g
    ><g transform="translate(900.5,520.5)"
    ><rect fill="none" x="0.5" width="18.5" height="18.5" y="0.5" clip-path="url(#clipPath3)"
    /></g
    ><g fill="rgb(255,255,255)" fill-opacity="0" transform="translate(860,60)" stroke-opacity="0" stroke="rgb(255,255,255)"
    ><rect x="0.5" width="98.5" height="28.5" y="0.5" clip-path="url(#clipPath4)" stroke="none"
    /></g
    ><g transform="translate(860.5,60.5)"
    ><rect fill="none" x="0.5" width="98.5" height="28.5" y="0.5" clip-path="url(#clipPath5)"
      /><text x="17" font-size="14px" y="17.9688" text-decoration="underline" clip-path="url(#clipPath5)" font-family="sans-serif" stroke="none" xml:space="preserve"
      >:Customer</text
    ></g
    ><g fill="rgb(255,255,255)" fill-opacity="0" transform="translate(310,430)" stroke-opacity="0" stroke="rgb(255,255,255)"
    ><rect x="0.5" width="18.5" height="138.5" y="0.5" clip-path="url(#clipPath6)" stroke="none"
    /></g
    ><g transform="translate(310.5,430.5)"
    ><rect fill="none" x="0.5" width="18.5" height="138.5" y="0.5" clip-path="url(#clipPath7)"
    /></g
    ><g fill="rgb(255,255,255)" fill-opacity="0" transform="translate(710,510)" stroke-opacity="0" stroke="rgb(255,255,255)"
    ><rect x="0.5" width="18.5" height="38.5" y="0.5" clip-path="url(#clipPath8)" stroke="none"
    /></g
    ><g transform="translate(710.5,510.5)"
    ><rect fill="none" x="0.5" width="18.5" height="38.5" y="0.5" clip-path="url(#clipPath9)"
    /></g
    ><g fill="rgb(255,255,255)" fill-opacity="0" transform="translate(670,60)" stroke-opacity="0" stroke="rgb(255,255,255)"
    ><rect x="0.5" width="98.5" height="28.5" y="0.5" clip-path="url(#clipPath4)" stroke="none"
    /></g
    ><g transform="translate(670.5,60.5)"
    ><rect fill="none" x="0.5" width="98.5" height="28.5" y="0.5" clip-path="url(#clipPath5)"
      /><text x="25" font-size="14px" y="17.9688" text-decoration="underline" clip-path="url(#clipPath5)" font-family="sans-serif" stroke="none" xml:space="preserve"
      >:Borrow</text
    ></g
    ><g fill="rgb(255,255,255)" fill-opacity="0" transform="translate(530,290)" stroke-opacity="0" stroke="rgb(255,255,255)"
    ><rect x="0.5" width="18.5" height="38.5" y="0.5" clip-path="url(#clipPath8)" stroke="none"
    /></g
    ><g transform="translate(530.5,290.5)"
    ><rect fill="none" x="0.5" width="18.5" height="38.5" y="0.5" clip-path="url(#clipPath9)"
    /></g
    ><g fill="rgb(255,255,255)" fill-opacity="0" transform="translate(500,60)" stroke-opacity="0" stroke="rgb(255,255,255)"
    ><rect x="0.5" width="98.5" height="28.5" y="0.5" clip-path="url(#clipPath4)" stroke="none"
    /></g
    ><g transform="translate(500.5,60.5)"
    ><rect fill="none" x="0.5" width="98.5" height="28.5" y="0.5" clip-path="url(#clipPath5)"
      /><text x="6" font-size="14px" y="17.9688" text-decoration="underline" clip-path="url(#clipPath5)" font-family="sans-serif" stroke="none" xml:space="preserve"
      >:StorePosition</text
    ></g
    ><g fill="rgb(255,255,255)" fill-opacity="0" transform="translate(310,270)" stroke-opacity="0" stroke="rgb(255,255,255)"
    ><rect x="0.5" width="18.5" height="78.5" y="0.5" clip-path="url(#clipPath10)" stroke="none"
    /></g
    ><g transform="translate(310.5,270.5)"
    ><rect fill="none" x="0.5" width="18.5" height="78.5" y="0.5" clip-path="url(#clipPath11)"
    /></g
    ><g fill="rgb(255,255,255)" fill-opacity="0" transform="translate(90,250)" stroke-opacity="0" stroke="rgb(255,255,255)"
    ><rect x="0.5" width="18.5" height="118.5" y="0.5" clip-path="url(#clipPath12)" stroke="none"
    /></g
    ><g transform="translate(90.5,250.5)"
    ><rect fill="none" x="0.5" width="18.5" height="118.5" y="0.5" clip-path="url(#clipPath13)"
    /></g
    ><g fill="rgb(255,255,255)" fill-opacity="0" transform="translate(90,410)" stroke-opacity="0" stroke="rgb(255,255,255)"
    ><rect x="0.5" width="18.5" height="168.5" y="0.5" clip-path="url(#clipPath14)" stroke="none"
    /></g
    ><g transform="translate(90.5,410.5)"
    ><rect fill="none" x="0.5" width="18.5" height="168.5" y="0.5" clip-path="url(#clipPath15)"
    /></g
    ><g fill="rgb(255,255,255)" fill-opacity="0" transform="translate(310,120)" stroke-opacity="0" stroke="rgb(255,255,255)"
    ><rect x="0.5" width="18.5" height="38.5" y="0.5" clip-path="url(#clipPath8)" stroke="none"
    /></g
    ><g transform="translate(310.5,120.5)"
    ><rect fill="none" x="0.5" width="18.5" height="38.5" y="0.5" clip-path="url(#clipPath9)"
    /></g
    ><g fill="rgb(255,255,255)" fill-opacity="0" transform="translate(270,60)" stroke-opacity="0" stroke="rgb(255,255,255)"
    ><rect x="0.5" width="98.5" height="28.5" y="0.5" clip-path="url(#clipPath4)" stroke="none"
    /></g
    ><g transform="translate(270.5,60.5)"
    ><rect fill="none" x="0.5" width="98.5" height="28.5" y="0.5" clip-path="url(#clipPath5)"
      /><text x="28" font-size="14px" y="17.9688" text-decoration="underline" clip-path="url(#clipPath5)" font-family="sans-serif" stroke="none" xml:space="preserve"
      >:Media</text
    ></g
    ><g fill="rgb(255,255,255)" fill-opacity="0" transform="translate(90,60)" stroke-opacity="0" stroke="rgb(255,255,255)"
    ><rect x="0.5" width="18.5" height="168.5" y="0.5" clip-path="url(#clipPath14)" stroke="none"
    /></g
    ><g transform="translate(90.5,60.5)"
    ><rect fill="none" x="0.5" width="18.5" height="168.5" y="0.5" clip-path="url(#clipPath15)"
    /></g
    ><g fill="rgb(255,255,255)" fill-opacity="0" transform="translate(50,0)" stroke-opacity="0" stroke="rgb(255,255,255)"
    ><rect x="0.5" width="128.5" height="28.5" y="0.5" clip-path="url(#clipPath16)" stroke="none"
    /></g
    ><g transform="translate(50.5,0.5)"
    ><rect fill="none" x="0.5" width="128.5" height="28.5" y="0.5" clip-path="url(#clipPath17)"
      /><text x="11" font-size="14px" y="17.9688" text-decoration="underline" clip-path="url(#clipPath17)" font-family="sans-serif" stroke="none" xml:space="preserve"
      >bbl:Bibliothécaire</text
    ></g
    ><g stroke-dasharray="8,5" stroke-miterlimit="5" transform="translate(720,520)" stroke-linecap="butt"
    ><path fill="none" d="M11.5 20.5 L180.5 20.5" clip-path="url(#clipPath18)"
      /><path d="M22.2583 27 L11 20.5 L22.2583 14 Z" clip-path="url(#clipPath18)" stroke="none"
      /><path fill="none" stroke-miterlimit="10" stroke-dasharray="none" d="M22.2583 27 L11 20.5 L22.2583 14 Z" clip-path="url(#clipPath18)" stroke-linecap="square"
    /></g
    ><g font-family="sans-serif" font-size="14px" transform="translate(720,520)"
    ><text x="70.4341" xml:space="preserve" y="16" clip-path="url(#clipPath18)" stroke="none"
      >ok: Bool</text
    ></g
    ><g transform="translate(720,500)"
    ><path fill="none" d="M189.5 20.5 L10.5 20.5" clip-path="url(#clipPath19)"
      /><path d="M178.7417 14 L190 20.5 L178.7417 27 Z" clip-path="url(#clipPath19)" stroke="none"
      /><path fill="none" d="M178.7417 14 L190 20.5 L178.7417 27 Z" clip-path="url(#clipPath19)"
      /><text x="21.9473" font-size="14px" y="16" clip-path="url(#clipPath19)" font-family="sans-serif" stroke="none" xml:space="preserve"
      >canBorrow(customer: Int)</text
    ></g
    ><g stroke-dasharray="8,5" stroke-miterlimit="5" transform="translate(900,80)" stroke-linecap="butt"
    ><path fill="none" d="M10.5 10.5 L10.5 450.5" clip-path="url(#clipPath20)"
      /><path fill="none" d="M10.5 450.5 L10.5 520.5" clip-path="url(#clipPath20)"
    /></g
    ><g stroke-dasharray="8,5" stroke-miterlimit="5" transform="translate(320,530)" stroke-linecap="butt"
    ><path fill="none" d="M11.5 20.5 L390.5 20.5" clip-path="url(#clipPath21)"
      /><path d="M22.2583 27 L11 20.5 L22.2583 14 Z" clip-path="url(#clipPath21)" stroke="none"
      /><path fill="none" stroke-miterlimit="10" stroke-dasharray="none" d="M22.2583 27 L11 20.5 L22.2583 14 Z" clip-path="url(#clipPath21)" stroke-linecap="square"
    /></g
    ><g font-family="sans-serif" font-size="14px" transform="translate(320,530)"
    ><text x="175.4341" xml:space="preserve" y="16" clip-path="url(#clipPath21)" stroke="none"
      >ok: Bool</text
    ></g
    ><g transform="translate(320,490)"
    ><path fill="none" d="M399.5 20.5 L10.5 20.5" clip-path="url(#clipPath22)"
      /><path d="M388.7417 14 L400 20.5 L388.7417 27 Z" clip-path="url(#clipPath22)" stroke="none"
      /><path fill="none" d="M388.7417 14 L400 20.5 L388.7417 27 Z" clip-path="url(#clipPath22)"
      /><text x="58.8511" font-size="14px" y="16" clip-path="url(#clipPath22)" font-family="sans-serif" stroke="none" xml:space="preserve"
      >create(customer: Int, media: Media, date: Date)</text
    ></g
    ><g stroke-dasharray="8,5" stroke-miterlimit="5" transform="translate(710,80)" stroke-linecap="butt"
    ><path fill="none" d="M10.5 10.5 L10.5 530.5" clip-path="url(#clipPath23)"
    /></g
    ><g stroke-dasharray="8,5" stroke-miterlimit="5" transform="translate(320,310)" stroke-linecap="butt"
    ><path fill="none" d="M11.5 20.5 L210.5 20.5" clip-path="url(#clipPath24)"
      /><path d="M22.2583 27 L11 20.5 L22.2583 14 Z" clip-path="url(#clipPath24)" stroke="none"
      /><path fill="none" stroke-miterlimit="10" stroke-dasharray="none" d="M22.2583 27 L11 20.5 L22.2583 14 Z" clip-path="url(#clipPath24)" stroke-linecap="square"
    /></g
    ><g font-family="sans-serif" font-size="14px" transform="translate(320,310)"
    ><text x="77.4702" xml:space="preserve" y="16" clip-path="url(#clipPath24)" stroke="none"
      >pos: String</text
    ></g
    ><g transform="translate(320,270)"
    ><path fill="none" d="M209.5 20.5 L10.5 20.5" clip-path="url(#clipPath24)"
      /><path d="M198.7417 14 L210 20.5 L198.7417 27 Z" clip-path="url(#clipPath24)" stroke="none"
      /><path fill="none" d="M198.7417 14 L210 20.5 L198.7417 27 Z" clip-path="url(#clipPath24)"
      /><text x="17.8765" font-size="14px" y="16" clip-path="url(#clipPath24)" font-family="sans-serif" stroke="none" xml:space="preserve"
      >getPositionString(pos_ref: Int)</text
    ></g
    ><g stroke-dasharray="8,5" stroke-miterlimit="5" transform="translate(530,80)" stroke-linecap="butt"
    ><path fill="none" d="M10.5 10.5 L10.5 520.5" clip-path="url(#clipPath20)"
    /></g
    ><g stroke-dasharray="8,5" stroke-miterlimit="5" transform="translate(100,330)" stroke-linecap="butt"
    ><path fill="none" d="M11.5 20.5 L210.5 20.5" clip-path="url(#clipPath24)"
      /><path d="M22.2583 27 L11 20.5 L22.2583 14 Z" clip-path="url(#clipPath24)" stroke="none"
      /><path fill="none" stroke-miterlimit="10" stroke-dasharray="none" d="M22.2583 27 L11 20.5 L22.2583 14 Z" clip-path="url(#clipPath24)" stroke-linecap="square"
    /></g
    ><g font-family="sans-serif" font-size="14px" transform="translate(100,330)"
    ><text x="77.4702" xml:space="preserve" y="16" clip-path="url(#clipPath24)" stroke="none"
      >pos: String</text
    ></g
    ><g transform="translate(100,250)"
    ><path fill="none" d="M209.5 20.5 L10.5 20.5" clip-path="url(#clipPath24)"
      /><path d="M198.7417 14 L210 20.5 L198.7417 27 Z" clip-path="url(#clipPath24)" stroke="none"
      /><path fill="none" d="M198.7417 14 L210 20.5 L198.7417 27 Z" clip-path="url(#clipPath24)"
      /><text x="32.2695" font-size="14px" y="16" clip-path="url(#clipPath24)" font-family="sans-serif" stroke="none" xml:space="preserve"
      >getPosition(book_ref: Int)</text
    ></g
    ><g stroke-dasharray="8,5" stroke-miterlimit="5" transform="translate(100,550)" stroke-linecap="butt"
    ><path fill="none" d="M11.5 20.5 L210.5 20.5" clip-path="url(#clipPath24)"
      /><path d="M22.2583 27 L11 20.5 L22.2583 14 Z" clip-path="url(#clipPath24)" stroke="none"
      /><path fill="none" stroke-miterlimit="10" stroke-dasharray="none" d="M22.2583 27 L11 20.5 L22.2583 14 Z" clip-path="url(#clipPath24)" stroke-linecap="square"
    /></g
    ><g font-family="sans-serif" font-size="14px" transform="translate(100,550)"
    ><text x="85.4341" xml:space="preserve" y="16" clip-path="url(#clipPath24)" stroke="none"
      >ok: Bool</text
    ></g
    ><g transform="translate(320,440)"
    ><path fill="none" d="M11.5 50.5 L60.5 50.5" clip-path="url(#clipPath25)"
      /><path fill="none" d="M60.5 50.5 L60.5 10.5" clip-path="url(#clipPath25)"
      /><path fill="none" d="M60.5 10.5 L10.5 10.5" clip-path="url(#clipPath25)"
      /><path d="M22.2583 57 L11 50.5 L22.2583 44 Z" clip-path="url(#clipPath25)" stroke="none"
      /><path fill="none" d="M22.2583 57 L11 50.5 L22.2583 44 Z" clip-path="url(#clipPath25)"
      /><text x="64" font-size="14px" y="37.9844" clip-path="url(#clipPath25)" font-family="sans-serif" stroke="none" xml:space="preserve"
      >IsStored()</text
    ></g
    ><g transform="translate(100,410)"
    ><path fill="none" d="M209.5 20.5 L10.5 20.5" clip-path="url(#clipPath24)"
      /><path d="M198.7417 14 L210 20.5 L198.7417 27 Z" clip-path="url(#clipPath24)" stroke="none"
      /><path fill="none" d="M198.7417 14 L210 20.5 L198.7417 27 Z" clip-path="url(#clipPath24)"
      /><text x="45.0205" font-size="14px" y="16" clip-path="url(#clipPath24)" font-family="sans-serif" stroke="none" xml:space="preserve"
      >Borrow(book_ref: Int)</text
    ></g
    ><g stroke-dasharray="8,5" stroke-miterlimit="5" transform="translate(100,140)" stroke-linecap="butt"
    ><path fill="none" d="M11.5 20.5 L210.5 20.5" clip-path="url(#clipPath24)"
      /><path d="M22.2583 27 L11 20.5 L22.2583 14 Z" clip-path="url(#clipPath24)" stroke="none"
      /><path fill="none" stroke-miterlimit="10" stroke-dasharray="none" d="M22.2583 27 L11 20.5 L22.2583 14 Z" clip-path="url(#clipPath24)" stroke-linecap="square"
    /></g
    ><g font-family="sans-serif" font-size="14px" transform="translate(100,140)"
    ><text x="53.1929" xml:space="preserve" y="16" clip-path="url(#clipPath24)" stroke="none"
      >List(media: Media)</text
    ></g
    ><g stroke-dasharray="8,5" stroke-miterlimit="5" transform="translate(310,80)" stroke-linecap="butt"
    ><path fill="none" d="M10.5 10.5 L10.5 540.5" clip-path="url(#clipPath26)"
    /></g
    ><g transform="translate(100,100)"
    ><path fill="none" d="M209.5 20.5 L10.5 20.5" clip-path="url(#clipPath24)"
      /><path d="M198.7417 14 L210 20.5 L198.7417 27 Z" clip-path="url(#clipPath24)" stroke="none"
      /><path fill="none" d="M198.7417 14 L210 20.5 L198.7417 27 Z" clip-path="url(#clipPath24)"
      /><text x="77.8896" font-size="14px" y="16" clip-path="url(#clipPath24)" font-family="sans-serif" stroke="none" xml:space="preserve"
      >Search(...)</text
    ></g
    ><g stroke-dasharray="8,5" stroke-miterlimit="5" transform="translate(90,20)" stroke-linecap="butt"
    ><path fill="none" d="M10.5 10.5 L10.5 570.5" clip-path="url(#clipPath27)"
    /></g
  ></g
></svg
>
